Statistical Analysis in Medical Research Using R - Basic programing
…
data <- read_csv("data/demographic_data.csv")

Rows: 100 Columns: 10
── Column specification ────────────────────────────────────────────────────────
Delimiter: ","
chr (7): Gender, Ethnicity, Education_Level, Occupation, Marital_Status, Res...
dbl (3): Age, Income, Household_Size

ℹ Use `spec()` to retrieve the full column specification for this data.
ℹ Specify the column types or set `show_col_types = FALSE` to quiet this message.

data

# A tibble: 100 × 10
     Age Gender Ethnicity Income Education_Level   Occupation   Marital_Status
   <dbl> <chr>  <chr>      <dbl> <chr>             <chr>        <chr>         
 1    48 Female White      75135 Some College      Student      Single        
 2    68 Other  White      43383 High School       Retired      Married       
 3    31 Male   Other      39154 Graduate Degree   Unemployed   Single        
 4    84 Male   Asian      31456 No High School    Professional Married       
 5    59 Female White      30729 Bachelor's Degree Unemployed   Married       
 6    67 Female Black      41390 Bachelor's Degree Service      Divorced      
 7    60 Male   Black      59270 No High School    Unemployed   Divorced      
 8    31 Female White      66648 Some College      Service      Divorced      
 9    42 Male   Black      60614 Bachelor's Degree Service      Widowed       
10    86 Female White      44545 Bachelor's Degree Student      Divorced      
# ℹ 90 more rows
# ℹ 3 more variables: Household_Size <dbl>, Residence_Location <chr>,
#   Housing_Tenure <chr>
…
